v 20110115 2
C 40000 40000 0 0 0 title-B.sym
C 47600 45100 1 0 0 npn-3.sym
{
T 48500 45600 5 10 0 0 0 0 1
device=NPN_TRANSISTOR
T 48500 45600 5 10 1 1 0 0 1
refdes=Q1
}
C 48300 46400 1 90 0 resistor-1.sym
{
T 47900 46700 5 10 0 0 90 0 1
device=RESISTOR
T 48600 47100 5 10 1 1 180 0 1
refdes=RC
}
C 47600 46400 1 90 0 resistor-1.sym
{
T 47200 46700 5 10 0 0 90 0 1
device=RESISTOR
T 47300 47100 5 10 1 1 180 0 1
refdes=RB
}
C 47000 45800 1 180 0 capacitor-2.sym
{
T 46800 45100 5 10 0 0 180 0 1
device=POLARIZED_CAPACITOR
T 46700 45300 5 10 1 1 180 0 1
refdes=CB
T 46800 44900 5 10 0 0 180 0 1
symversion=0.1
}
C 46200 45700 1 180 0 resistor-1.sym
{
T 45900 45300 5 10 0 0 180 0 1
device=RESISTOR
T 45900 45300 5 10 1 1 180 0 1
refdes=RS
}
C 45300 44700 1 90 0 voltage-1.sym
{
T 44800 44800 5 10 0 0 90 0 1
device=VOLTAGE_SOURCE
T 45500 44800 5 10 1 1 180 0 1
refdes=VS
}
C 45000 43900 1 0 0 gnd-1.sym
N 47600 45600 47000 45600 4
N 47500 46400 47500 45600 4
N 46100 45600 46200 45600 4
N 45300 45600 45100 45600 4
N 45100 44700 45100 44200 4
N 48200 46400 48200 46100 4
C 48000 47500 1 0 0 vcc-1.sym
N 47500 47500 48200 47500 4
C 48100 43900 1 0 0 gnd-1.sym
C 48900 46100 1 0 0 capacitor-2.sym
{
T 49100 46800 5 10 0 0 0 0 1
device=POLARIZED_CAPACITOR
T 49300 46600 5 10 1 1 0 0 1
refdes=CC
T 49100 47000 5 10 0 0 0 0 1
symversion=0.1
}
C 50200 45100 1 90 0 resistor-1.sym
{
T 49800 45400 5 10 0 0 90 0 1
device=RESISTOR
T 49900 45500 5 10 1 1 180 0 1
refdes=RL
}
N 48200 46300 48900 46300 4
N 49800 46300 50100 46300 4
N 50100 46300 50100 46000 4
C 50000 43900 1 0 0 gnd-1.sym
N 50100 45100 50100 44200 4
N 47500 47300 47500 47500 4
N 48200 47300 48200 47500 4
T 50300 46200 9 10 1 0 0 0 1
OUT
T 44800 45500 9 10 1 0 0 0 1
IN
B 46800 43700 2000 4300 3 0 0 0 -1 -1 0 -1 -1 -1 -1 -1
T 47100 43500 9 10 1 0 0 0 1
DC analysis circuit
C 48300 44200 1 90 0 resistor-1.sym
{
T 47900 44500 5 10 0 0 90 0 1
device=RESISTOR
T 48600 44900 5 10 1 1 180 0 1
refdes=RE
}
