v 20110115 2
C 40000 40000 0 0 0 title-B.sym
C 46000 46200 1 0 0 npn-3.sym
{
T 46900 46700 5 10 0 0 0 0 1
device=NPN_TRANSISTOR
T 46900 46700 5 10 1 1 0 0 1
refdes=Q1
}
C 46700 47400 1 90 0 resistor-1.sym
{
T 46300 47700 5 10 0 0 90 0 1
device=RESISTOR
T 47000 48100 5 10 1 1 180 0 1
refdes=RC
}
C 45800 47400 1 90 0 resistor-1.sym
{
T 45400 47700 5 10 0 0 90 0 1
device=RESISTOR
T 46200 48100 5 10 1 1 180 0 1
refdes=RB1
}
C 45400 46900 1 180 0 capacitor-2.sym
{
T 45200 46200 5 10 0 0 180 0 1
device=POLARIZED_CAPACITOR
T 45100 46400 5 10 1 1 180 0 1
refdes=CB
T 45200 46000 5 10 0 0 180 0 1
symversion=0.1
}
C 44600 46800 1 180 0 resistor-1.sym
{
T 44300 46400 5 10 0 0 180 0 1
device=RESISTOR
T 44300 46400 5 10 1 1 180 0 1
refdes=RS
}
C 43700 45800 1 90 0 voltage-1.sym
{
T 43200 45900 5 10 0 0 90 0 1
device=VOLTAGE_SOURCE
T 43900 45900 5 10 1 1 180 0 1
refdes=VS
}
C 43400 45000 1 0 0 gnd-1.sym
N 46000 46700 45400 46700 4
N 45700 47400 45700 46700 4
N 44500 46700 44600 46700 4
N 43700 46700 43500 46700 4
N 43500 45800 43500 45300 4
N 46600 47400 46600 47200 4
C 46400 48600 1 0 0 vcc-1.sym
N 45700 48300 45700 48500 4
C 46500 45000 1 0 0 gnd-1.sym
C 47300 47100 1 0 0 capacitor-2.sym
{
T 47500 47800 5 10 0 0 0 0 1
device=POLARIZED_CAPACITOR
T 47700 47600 5 10 1 1 0 0 1
refdes=CC
T 47500 48000 5 10 0 0 0 0 1
symversion=0.1
}
C 49000 46200 1 90 0 resistor-1.sym
{
T 48600 46500 5 10 0 0 90 0 1
device=RESISTOR
T 48700 46600 5 10 1 1 180 0 1
refdes=RL
}
N 46600 47300 47300 47300 4
N 48200 47300 48900 47300 4
N 48900 47300 48900 47100 4
C 48800 45000 1 0 0 gnd-1.sym
N 48900 46200 48900 45300 4
N 46600 48300 46600 48600 4
T 49000 47300 9 10 1 0 0 0 1
OUT
T 43200 46600 9 10 1 0 0 0 1
IN
B 45200 44800 2000 4300 3 0 0 0 -1 -1 0 -1 -1 -1 -1 -1
T 45500 44600 9 10 1 0 0 0 1
DC analysis circuit
C 46700 45300 1 90 0 resistor-1.sym
{
T 46300 45600 5 10 0 0 90 0 1
device=RESISTOR
T 47000 46000 5 10 1 1 180 0 1
refdes=RE
}
C 47700 46200 1 270 0 capacitor-2.sym
{
T 48400 46000 5 10 0 0 270 0 1
device=POLARIZED_CAPACITOR
T 48200 45700 5 10 1 1 0 0 1
refdes=CE
T 48600 46000 5 10 0 0 270 0 1
symversion=0.1
}
C 47800 45000 1 0 0 gnd-1.sym
N 47900 46200 46600 46200 4
N 45700 48500 46600 48500 4
C 45800 45300 1 90 0 resistor-1.sym
{
T 45400 45600 5 10 0 0 90 0 1
device=RESISTOR
T 46200 46000 5 10 1 1 180 0 1
refdes=RB2
}
N 45700 46700 45700 46200 4
C 45600 45000 1 0 0 gnd-1.sym
