v 20110115 2
C 40000 40000 0 0 0 title-B.sym
C 46000 45900 1 0 0 npn-3.sym
{
T 46900 46400 5 10 0 0 0 0 1
device=NPN_TRANSISTOR
T 46900 46400 5 10 1 1 0 0 1
refdes=Q1
}
C 48000 45000 1 90 0 resistor-1.sym
{
T 47600 45300 5 10 0 0 90 0 1
device=RESISTOR
T 48300 45700 5 10 1 1 180 0 1
refdes=RC
}
C 45200 45900 1 270 0 resistor-1.sym
{
T 45600 45600 5 10 0 0 270 0 1
device=RESISTOR
T 45400 45600 5 10 1 1 0 0 1
refdes=RB1
}
C 43400 46500 1 180 0 resistor-1.sym
{
T 43100 46100 5 10 0 0 180 0 1
device=RESISTOR
T 43100 46100 5 10 1 1 180 0 1
refdes=RS
}
C 42500 45500 1 90 0 voltage-1.sym
{
T 42000 45600 5 10 0 0 90 0 1
device=VOLTAGE_SOURCE
T 42700 45600 5 10 1 1 180 0 1
refdes=VS
}
C 42200 44700 1 0 0 gnd-1.sym
N 46000 46400 43400 46400 4
N 45300 45900 45300 46400 4
N 42500 46400 42300 46400 4
N 42300 45500 42300 45000 4
C 49000 45000 1 90 0 resistor-1.sym
{
T 48600 45300 5 10 0 0 90 0 1
device=RESISTOR
T 49300 45700 5 10 1 1 180 0 1
refdes=RL
}
N 46600 46900 48900 46900 4
N 48900 46900 48900 45900 4
C 48800 44700 1 0 0 gnd-1.sym
N 47900 45900 47900 46900 4
T 49000 47000 9 10 1 0 0 0 1
OUT
T 42000 46300 9 10 1 0 0 0 1
IN
C 46500 44700 1 0 0 gnd-1.sym
C 44600 45000 1 90 0 resistor-1.sym
{
T 44200 45300 5 10 0 0 90 0 1
device=RESISTOR
T 45000 45700 5 10 1 1 180 0 1
refdes=RB2
}
N 44500 46400 44500 45900 4
C 44400 44700 1 0 0 gnd-1.sym
C 45200 44700 1 0 0 gnd-1.sym
C 47800 44700 1 0 0 gnd-1.sym
N 46600 45900 46600 45000 4
