v 20110115 2
C 40000 40000 0 0 0 title-B.sym
C 46000 47000 1 0 0 npn-3.sym
{
T 46900 47500 5 10 0 0 0 0 1
device=NPN_TRANSISTOR
T 46900 47500 5 10 1 1 0 0 1
refdes=Q1
}
C 46700 48200 1 90 0 resistor-1.sym
{
T 46300 48500 5 10 0 0 90 0 1
device=RESISTOR
T 47000 48900 5 10 1 1 180 0 1
refdes=RC
}
C 45800 48200 1 90 0 resistor-1.sym
{
T 45400 48500 5 10 0 0 90 0 1
device=RESISTOR
T 46200 48900 5 10 1 1 180 0 1
refdes=RB1
}
C 45400 47700 1 180 0 capacitor-2.sym
{
T 45200 47000 5 10 0 0 180 0 1
device=POLARIZED_CAPACITOR
T 45100 47200 5 10 1 1 180 0 1
refdes=CB
T 45200 46800 5 10 0 0 180 0 1
symversion=0.1
}
C 44600 47600 1 180 0 resistor-1.sym
{
T 44300 47200 5 10 0 0 180 0 1
device=RESISTOR
T 44300 47200 5 10 1 1 180 0 1
refdes=RS
}
C 43700 45800 1 90 0 voltage-1.sym
{
T 43200 45900 5 10 0 0 90 0 1
device=VOLTAGE_SOURCE
T 43900 45600 5 10 1 1 180 0 1
refdes=VS
}
C 43400 44700 1 0 0 gnd-1.sym
N 46000 47500 45400 47500 4
N 45700 48200 45700 47500 4
N 44500 47500 44600 47500 4
N 43700 47500 43500 47500 4
N 43500 45800 43500 45000 4
N 46600 48200 46600 48000 4
C 46400 49400 1 0 0 vcc-1.sym
N 45700 49100 45700 49300 4
C 46500 44700 1 0 0 gnd-1.sym
C 47300 47900 1 0 0 capacitor-2.sym
{
T 47500 48600 5 10 0 0 0 0 1
device=POLARIZED_CAPACITOR
T 47700 48400 5 10 1 1 0 0 1
refdes=CC
T 47500 48800 5 10 0 0 0 0 1
symversion=0.1
}
C 49000 46200 1 90 0 resistor-1.sym
{
T 48600 46500 5 10 0 0 90 0 1
device=RESISTOR
T 48700 46600 5 10 1 1 180 0 1
refdes=RL
}
N 46600 48100 47300 48100 4
N 48200 48100 48900 48100 4
N 48900 48100 48900 47100 4
C 48800 44700 1 0 0 gnd-1.sym
N 48900 46200 48900 45000 4
N 46600 49100 46600 49400 4
T 49000 48100 9 10 1 0 0 0 1
OUT
T 43200 47400 9 10 1 0 0 0 1
IN
B 45200 44900 2000 4600 3 0 0 0 -1 -1 0 -1 -1 -1 -1 -1
T 45500 44400 9 10 1 0 0 0 1
DC analysis circuit
C 46700 45000 1 90 0 resistor-1.sym
{
T 46300 45300 5 10 0 0 90 0 1
device=RESISTOR
T 47100 45700 5 10 1 1 180 0 1
refdes=REH
}
C 47700 45900 1 270 0 capacitor-2.sym
{
T 48400 45700 5 10 0 0 270 0 1
device=POLARIZED_CAPACITOR
T 48200 45400 5 10 1 1 0 0 1
refdes=CE
T 48600 45700 5 10 0 0 270 0 1
symversion=0.1
}
C 47800 44700 1 0 0 gnd-1.sym
N 47900 45900 46600 45900 4
N 45700 49300 46600 49300 4
C 45800 45000 1 90 0 resistor-1.sym
{
T 45400 45300 5 10 0 0 90 0 1
device=RESISTOR
T 46200 45700 5 10 1 1 180 0 1
refdes=RB2
}
N 45700 47500 45700 45900 4
C 45600 44700 1 0 0 gnd-1.sym
N 46600 46000 46600 45900 4
N 43500 47500 43500 46700 4
C 46700 46000 1 90 0 resistor-1.sym
{
T 46300 46300 5 10 0 0 90 0 1
device=RESISTOR
T 47100 46700 5 10 1 1 180 0 1
refdes=REL
}
N 46600 46900 46600 47000 4
