v 20110115 2
C 40000 40000 0 0 0 title-B.sym
C 50600 45000 1 270 0 current-1.sym
{
T 51600 44400 5 10 0 0 270 0 1
device=CURRENT_SOURCE
T 51200 44400 5 10 1 1 0 0 1
refdes=I
}
C 49100 44100 1 90 0 resistor-1.sym
{
T 48700 44400 5 10 0 0 90 0 1
device=RESISTOR
T 48700 44600 5 10 1 1 180 0 1
refdes=r
}
N 49000 44100 51700 44100 4
N 49900 44100 49900 44000 4
N 50800 45000 52100 45000 4
N 49000 45000 48300 45000 4
T 48200 45100 9 10 1 0 0 0 1
B
T 52100 45100 9 10 1 0 0 0 1
C
T 50000 42800 9 10 1 0 0 0 1
E
C 50000 43100 1 90 0 resistor-1.sym
{
T 49600 43400 5 10 0 0 90 0 1
device=RESISTOR
T 49600 43600 5 10 1 1 180 0 1
refdes=r
}
N 49900 43100 49900 42900 4
C 51800 44100 1 90 0 resistor-1.sym
{
T 51400 44400 5 10 0 0 90 0 1
device=RESISTOR
T 52000 44600 5 10 1 1 180 0 1
refdes=r
}
