v 20110115 2
C 40000 40000 0 0 0 title-B.sym
C 48600 48400 1 90 0 resistor-1.sym
{
T 48200 48700 5 10 0 0 90 0 1
device=RESISTOR
T 48300 48600 5 10 1 1 90 0 1
refdes=RC
T 48600 48400 5 10 1 1 0 0 1
value=100
}
C 48600 45800 1 90 0 resistor-1.sym
{
T 48200 46100 5 10 0 0 90 0 1
device=RESISTOR
T 48300 46000 5 10 1 1 90 0 1
refdes=RE
T 48600 45800 5 10 1 1 0 0 1
value=100
}
C 47000 48400 1 90 0 resistor-1.sym
{
T 46600 48700 5 10 0 0 90 0 1
device=RESISTOR
T 46700 48600 5 10 1 1 90 0 1
refdes=RB
T 47000 48400 5 10 1 1 0 0 1
value=1K
}
C 45700 45800 1 90 0 voltage-1.sym
{
T 45200 45900 5 10 0 0 90 0 1
device=VOLTAGE_SOURCE
T 45200 46100 5 10 1 1 90 0 1
refdes=VIN
T 45700 45800 5 10 1 1 0 0 1
value=sin(0 1 200kHz)
}
C 47900 47000 1 0 0 npn-3.sym
{
T 48800 47500 5 10 0 0 0 0 1
device=NPN_TRANSISTOR
T 48800 47500 5 10 1 1 0 0 1
refdes=Q1
T 48800 47200 5 10 1 1 0 0 1
model-name=BC307-1
}
C 45400 45100 1 0 0 gnd-1.sym
C 48400 45100 1 0 0 gnd-1.sym
C 48300 49900 1 0 0 vcc-1.sym
{
T 48300 49900 5 10 0 0 0 0 1
refdes=Vcc
T 48600 49900 5 10 1 1 0 0 1
value=10
}
N 48500 49900 48500 49300 4
N 48500 49300 46900 49300 4
N 48500 48400 48500 48000 4
N 46900 48400 46900 47500 4
N 46900 47500 47900 47500 4
N 48500 47000 48500 46700 4
N 48500 45800 48500 45400 4
C 46900 47700 1 180 0 capacitor-2.sym
{
T 46700 47000 5 10 0 0 180 0 1
device=POLARIZED_CAPACITOR
T 46700 47200 5 10 1 1 180 0 1
refdes=CIN
T 46700 46800 5 10 0 0 180 0 1
symversion=0.1
T 46400 47800 5 10 1 1 0 0 1
value=1uF
}
N 45500 46700 45500 47500 4
N 45500 47500 46000 47500 4
{
T 45500 47500 5 10 1 1 0 0 1
netname=Vin
}
C 51000 45700 1 90 0 resistor-1.sym
{
T 50600 46000 5 10 0 0 90 0 1
device=RESISTOR
T 50700 45900 5 10 1 1 90 0 1
refdes=RL
T 51000 45700 5 10 1 1 0 0 1
value=1K
}
C 50800 45100 1 0 0 gnd-1.sym
N 45500 45400 45500 45800 4
N 50900 46600 50900 48200 4
N 50900 48200 48500 48200 4
{
T 50900 48300 5 10 1 1 0 0 1
netname=Vout
}
N 50900 45700 50900 45400 4
